%YAML 1.1
%TAG !u! tag:unity3d.com,2011:
--- !u!114 &1641227328
MonoBehaviour:
  m_ObjectHideFlags: 0
  m_CorrespondingSourceObject: {fileID: 0}
  m_PrefabInstance: {fileID: 0}
  m_PrefabAsset: {fileID: 0}
  m_GameObject: {fileID: 3915540081139608100}
  m_Enabled: 1
  m_EditorHideFlags: 0
  m_Script: {fileID: 11500000, guid: cb4317a1b6cdc3a439cd1edd6141be11, type: 3}
  m_Name: 
  m_EditorClassIdentifier: 
  _movePosition: {x: 0, y: 5, z: 0}
  _moveProgress: 0
  _moveSpeed: 2
--- !u!1001 &3688595988788525335
PrefabInstance:
  m_ObjectHideFlags: 0
  serializedVersion: 2
  m_Modification:
    m_TransformParent: {fileID: 0}
    m_Modifications:
    - target: {fileID: 1625858313, guid: f61cbbe17cc1bce46af0afe6dc5685ca, type: 3}
      propertyPath: m_Enabled
      value: 0
      objectReference: {fileID: 0}
    - target: {fileID: 389082493536097075, guid: f61cbbe17cc1bce46af0afe6dc5685ca,
        type: 3}
      propertyPath: m_Name
      value: Rocket Variant
      objectReference: {fileID: 0}
    - target: {fileID: 2647334597133996666, guid: f61cbbe17cc1bce46af0afe6dc5685ca,
        type: 3}
      propertyPath: m_IsActive
      value: 0
      objectReference: {fileID: 0}
    - target: {fileID: 3239288639651318491, guid: f61cbbe17cc1bce46af0afe6dc5685ca,
        type: 3}
      propertyPath: m_IsActive
      value: 0
      objectReference: {fileID: 0}
    - target: {fileID: 5514491826963640777, guid: f61cbbe17cc1bce46af0afe6dc5685ca,
        type: 3}
      propertyPath: m_IsActive
      value: 0
      objectReference: {fileID: 0}
    - target: {fileID: 6681656825004520031, guid: f61cbbe17cc1bce46af0afe6dc5685ca,
        type: 3}
      propertyPath: m_RootOrder
      value: 0
      objectReference: {fileID: 0}
    - target: {fileID: 6681656825004520031, guid: f61cbbe17cc1bce46af0afe6dc5685ca,
        type: 3}
      propertyPath: m_LocalPosition.x
      value: -4.73
      objectReference: {fileID: 0}
    - target: {fileID: 6681656825004520031, guid: f61cbbe17cc1bce46af0afe6dc5685ca,
        type: 3}
      propertyPath: m_LocalPosition.y
      value: 2.52
      objectReference: {fileID: 0}
    - target: {fileID: 6681656825004520031, guid: f61cbbe17cc1bce46af0afe6dc5685ca,
        type: 3}
      propertyPath: m_LocalPosition.z
      value: 1.36
      objectReference: {fileID: 0}
    - target: {fileID: 6681656825004520031, guid: f61cbbe17cc1bce46af0afe6dc5685ca,
        type: 3}
      propertyPath: m_LocalRotation.w
      value: 1
      objectReference: {fileID: 0}
    - target: {fileID: 6681656825004520031, guid: f61cbbe17cc1bce46af0afe6dc5685ca,
        type: 3}
      propertyPath: m_LocalRotation.x
      value: 0
      objectReference: {fileID: 0}
    - target: {fileID: 6681656825004520031, guid: f61cbbe17cc1bce46af0afe6dc5685ca,
        type: 3}
      propertyPath: m_LocalRotation.y
      value: 0
      objectReference: {fileID: 0}
    - target: {fileID: 6681656825004520031, guid: f61cbbe17cc1bce46af0afe6dc5685ca,
        type: 3}
      propertyPath: m_LocalRotation.z
      value: 0
      objectReference: {fileID: 0}
    - target: {fileID: 6681656825004520031, guid: f61cbbe17cc1bce46af0afe6dc5685ca,
        type: 3}
      propertyPath: m_LocalEulerAnglesHint.x
      value: 0
      objectReference: {fileID: 0}
    - target: {fileID: 6681656825004520031, guid: f61cbbe17cc1bce46af0afe6dc5685ca,
        type: 3}
      propertyPath: m_LocalEulerAnglesHint.y
      value: 0
      objectReference: {fileID: 0}
    - target: {fileID: 6681656825004520031, guid: f61cbbe17cc1bce46af0afe6dc5685ca,
        type: 3}
      propertyPath: m_LocalEulerAnglesHint.z
      value: 0
      objectReference: {fileID: 0}
    m_RemovedComponents:
    - {fileID: 1625858313, guid: f61cbbe17cc1bce46af0afe6dc5685ca, type: 3}
    - {fileID: 5660675444297212303, guid: f61cbbe17cc1bce46af0afe6dc5685ca, type: 3}
  m_SourcePrefab: {fileID: 100100000, guid: f61cbbe17cc1bce46af0afe6dc5685ca, type: 3}
--- !u!1 &3915540081139608100 stripped
GameObject:
  m_CorrespondingSourceObject: {fileID: 389082493536097075, guid: f61cbbe17cc1bce46af0afe6dc5685ca,
    type: 3}
  m_PrefabInstance: {fileID: 3688595988788525335}
  m_PrefabAsset: {fileID: 0}
